{
  "cviceni": {
    "version": {
      "global": "<%= version %>",
      "content": 3
    },
    "katalog": [
      "test",
      "public"
    ],
    "language": "cs",
    "slug": "proc-byli-vysidleni",
    "nazev": "Proč byli vysídleni?",
    "autor": [
      "Kamil Činátl"
    ],
    "klicovaSlova": {
      "rvp": [
        "důsledky druhé světové války",
        "národnostní problémy ČSR"
      ],
      "koncept": [
        "migrace"
      ],
      "b4": [
        "příčiny a důsledky"
      ],
      "historylab": [
        "porovnáváme zdroje"
      ]
    },
    "casovaOsa": {
      "roky": [
        1938,
        1945
      ],
      "epochy": [
        {
          "refId": "czech",
          "obdobi": [
            "druhá republika a tzv. protektorát",
            "poválečná doba a nástup komunismu"
          ]
        },
        {
          "refId": "world",
          "obdobi": []
        }
      ]
    },
    "anotace": {
      "ucitel": "Cvičení nabízí dvojici fotografií, které zachycují vysídlování Čechů z pohraničí v roce 1938 a Němců z ČSR v roce 1945. Žáci vnímají historické události perspektivou konkrétních lidí. Využívají další prameny (mnichovská dohoda a prezidentský dekret k úpravě občanství Němců a Maďarů), aby porozuměli odlišným důvodům a okolnostem vysídlení.",
      "verejna": "Pokuste se vcítit do chlapce a ženy, kteří nuceně opouštějí své domovy. Jak se to mohlo stát? Vezměte si na pomoc důležité dokumenty a zjistěte, jak navždy ovlivnily tisíce životů."
    },
    "trvani": 45,
    "obtiznost": "střední",
    "funkce": [
      "lupa",
      "text",
      "svg",
      "znacky",
      "text-editor"
    ],
    "pdf": {
      "doporucenyPostup": "proc-byli-vysidleni.pdf"
    },
    "uvodniObrazek": "proc-byli-vysidleni/pic-01-1280w.jpg",
    "id": 25,
    "color": {
      "rgb": {
        "r": 136,
        "g": 136,
        "b": 136
      },
      "hsv": {
        "h": 0,
        "s": 0,
        "v": 53.33
      }
    }
  },
  "slajd": [
    {
      "zadani": {
        "hlavni": "Prohlédněte si fotografii.",
        "rozsirujici": ""
      },
      "napoveda": {
        "aktivity": [
          "lupa"
        ],
        "text": ""
      },
      "prameny": [
        "proc-byli-vysidleni/pic-00-1024h.jpg"
      ],
      "popisky": [
        "Čeští obyvatelé opouští pohraničí, které bylo po přijetí mnichovské dohody zabráno nacistickým Německem, Polička, říjen 1938. Zdroj: ČTK"
      ]
    },
    {
      "zadani": {
        "hlavni": "Prohlédněte si druhou fotografii.",
        "rozsirujici": ""
      },
      "napoveda": {
        "aktivity": [
          "lupa"
        ],
        "text": ""
      },
      "prameny": [
        "proc-byli-vysidleni/pic-01-1280w.jpg"
      ],
      "popisky": [
        "Čeští Němci čekají na transport k vysídlení z Československa, Praha Holešovice, Strossmayerovo náměstí, květen 1945. Zdroj: ČTK"
      ]
    },
    {
      "zadani": {
        "hlavni": "Označte důležité prvky na fotografii a popište, co se na ní děje.",
        "rozsirujici": ""
      },
      "napoveda": {
        "aktivity": [
          "svg"
        ],
        "text": "Kliknutím na snímek levým tlačítkem myši označujete bod. Nakliknutím na bod pravým tlačítkem otevřete menu s nabídkou úkonů: změnit barvu bodu, (T) doplnit textový komentář, (X) smazat nakliknutý objekt."
      },
      "svg": {
        "soubory": [
          {
            "id": "svg-1",
            "soubor": "proc-byli-vysidleni/pic-00-1024h.jpg",
            "funkce": [
              "text",
              "znacky"
            ]
          }
        ]
      }
    },
    {
      "zadani": {
        "hlavni": "Označte důležité prvky na fotografii a popište, co se na ní děje.",
        "rozsirujici": ""
      },
      "napoveda": {
        "aktivity": [
          "svg"
        ],
        "text": "Kliknutím na snímek levým tlačítkem myši označujete bod. Nakliknutím na bod pravým tlačítkem otevřete menu s nabídkou úkonů: změnit barvu bodu, (T) doplnit textový komentář, (X) smazat nakliknutý objekt."
      },
      "svg": {
        "soubory": [
          {
            "id": "svg-2",
            "soubor": "proc-byli-vysidleni/pic-01-1280w.jpg",
            "funkce": [
              "text",
              "znacky"
            ]
          }
        ]
      }
    },
    {
      "zadani": {
        "hlavni": "Jak se mohli cítit chlapec a mladá žena na fotografiích?",
        "rozsirujici": "Formulujte myšlenky a promluvy z pohledu zachycených osob."
      },
      "napoveda": {
        "aktivity": [
          "svg"
        ],
        "text": "Kliknutím na snímek levým tlačítkem myši označujete bod. Nakliknutím na bod pravým tlačítkem otevřete menu s nabídkou úkonů: změnit barvu bodu, (T) doplnit textový komentář, (X) smazat nakliknutý objekt."
      },
      "svg": {
        "soubory": [
          {
            "id": "svg-3",
            "soubor": "proc-byli-vysidleni/pic-00-1024h.jpg",
            "funkce": [
              "text",
              "znacky",
              "komiks"
            ],
            "komiks": [
              {
                "kategorie": "text",
                "subkategorie": "promluva",
                "pozice": [
                  140,
                  360
                ],
                "subjekt": [
                  "top",
                  "right"
                ]
              },
              {
                "kategorie": "text",
                "subkategorie": "myslenka",
                "pozice": [
                  480,
                  180
                ],
                "subjekt": [
                  "bottom",
                  "left"
                ]
              }
            ]
          },
          {
            "id": "svg-4",
            "soubor": "proc-byli-vysidleni/pic-01-1024w.jpg",
            "funkce": [
              "text",
              "znacky",
              "komiks"
            ],
            "komiks": [
              {
                "kategorie": "text",
                "subkategorie": "promluva",
                "pozice": [
                  375,
                  350
                ],
                "subjekt": [
                  "top",
                  "right"
                ]
              },
              {
                "kategorie": "text",
                "subkategorie": "myslenka",
                "pozice": [
                  705,
                  175
                ],
                "subjekt": [
                  "bottom",
                  "left"
                ]
              }
            ]
          }
        ]
      }
    },
    {
      "zadani": {
        "hlavni": "Přečtěte si ukázky z historických dokumentů a pátrejte po příčinách vysídlení.",
        "rozsirujici": "Označte důležité pasáže."
      },
      "napoveda": {
        "aktivity": [
          "text"
        ],
        "text": ""
      },
      "textovyEditor": {
        "texty": [
          {
            "id": 0,
            "text": "text-00",
            "funkce": "zvyraznovani",
            "menu": [
              {
                "title": "Důležitá pasáž.",
                "commandName": "mnichovska-dohoda",
                "color": "orange"
              }
            ]
          },
          {
            "id": 1,
            "text": "text-01",
            "funkce": "zvyraznovani",
            "menu": [
              {
                "title": "Důležitá pasáž.",
                "commandName": "ustavni-dekret",
                "color": "red"
              }
            ]
          }
        ]
      }
    },
    {
      "zadani": {
        "hlavni": "Přečtěte si text a zasaďte fotografie do dobových souvislostí.",
        "rozsirujici": "Označte důležité pasáže."
      },
      "napoveda": {
        "aktivity": [
          "text"
        ],
        "text": ""
      },
      "textovyEditor": {
        "texty": [
          {
            "id": 2,
            "text": "text-02",
            "funkce": "zvyraznovani",
            "menu": [
              {
                "title": "Označit pasáž.",
                "commandName": "dulezite-pasaze",
                "color": "blue"
              }
            ]
          }
        ]
      },
      "popisky": [
        "Zdroj: Matěj Spurný, historik"
      ]
    },
    {
      "zadani": {
        "hlavni": "Odpovězte na otázky.",
        "rozsirujici": ""
      },
      "napoveda": {
        "aktivity": [
          "text"
        ],
        "text": ""
      },
      "uzivatelskyText": {
        "galerie": [
          {
            "soubor": "proc-byli-vysidleni/pic-00-1024h.jpg"
          },
          {
            "soubor": "proc-byli-vysidleni/pic-01-1280w.jpg"
          }
        ],
        "otazky": [
          {
            "id": "text-1",
            "zadani": "Proč byl vysídlen chlapec?",
            "instrukce": "Myslím si, že…",
            "minDelka": 10,
            "maxDelka": 400
          },
          {
            "id": "text-2",
            "zadani": "Proč byla vysídlena mladá žena?",
            "instrukce": "Myslím si, že…",
            "minDelka": 10,
            "maxDelka": 400
          }
        ]
      }
    }
  ]
}