{
  "cviceni": {
    "version": {
      "global": "<%= version %>",
      "content": 1
    },
    "katalog": [
      "test"
    ],
    "language": "cs",
    "slug": "proc-nevyhrali-valku",
    "nazev": "Proč nevyhráli válku?",
    "autor": [
      "Václav Sixta"
    ],
    "klicovaSlova": {
      "rvp": [
        "druhá světová válka"
      ],
      "koncept": [],
      "b4": [
        "příčiny a důsledky"
      ],
      "historylab": [
        "porovnáváme zdroje"
      ]
    },
    "casovaOsa": {
      "roky": [
        2007
      ],
      "epochy": [
        {
          "refId": "czech",
          "obdobi": []
        },
        {
          "refId": "world",
          "obdobi": [
            "Lidstvo na měnící se planetě"
          ]
        }
      ]
    },
    "anotace": {
      "ucitel": "Cvičení seznamuje žáky s pohledy dvou historiků na výsledek druhé světové války. Na základě srovnání dvou textů, které na sebe reagují, se ukazují jak odlišné závěry, tak různé způsoby argumentace. Žáci tak mají možnost pracovat s jazykem dvou významných syntéz evropských dějin, které jsou dostupné v českých překladech. Závěr cvičení nabízí možnost získat odstup od obou textů a formulovat vlastní hypotézy či využít znalosti z jiných zdrojů.",
      "verejna": "Každý ví, kdo vyhrál druhou světovou válku. Určení příčin vítězství Spojenců ovšem nemusí být tak jednoznačné. Přečtěte si a posuďte dva texty historiků o druhé světové válce. Kdo podle vás přesvědčivěji líčí příčiny porážky nacistického Německa?"
    },
    "trvani": 30,
    "obtiznost": "",
    "funkce": [
      "lupa",
      "cteni",
      "text",
      "text-editor"
    ],
    "pdf": {
      "doporucenyPostup": "proc-nevyhrali-valku.pdf"
    },
    "uvodniObrazek": "proc-nevyhrali-valku/pic-03-800w.jpg",
    "id": 94,
    "color": {
      "rgb": {
        "r": 152,
        "g": 152,
        "b": 152
      },
      "hsv": {
        "h": 0,
        "s": 0,
        "v": 59.61
      }
    }
  },
  "slajd": [
    {
      "zadani": {
        "hlavni": "Přečtěte si text historika Richarda Vinena.",
        "rozsirujici": ""
      },
      "napoveda": {
        "aktivity": [
          "lupa",
          "cteni"
        ],
        "text": "Kliknutím levého tlačítka do obrazu a jeho podržením lupa přiblíží část obrazu ve výřezu."
      },
      "textovyEditor": {
        "nastaveni": {
          "layout": "velka-galerie"
        },
        "galerie": [
          {
            "soubor": "proc-nevyhrali-valku/pic-00-800w.jpg",
            "popisek": "Východní fronta 22. června 1941 – 5. prosinec 1941. Zdroj: Gdr [CC BY-SA 3.0 (http://creativecommons.org/licenses/by-sa/3.0/)]"
          },
          {
            "soubor": "proc-nevyhrali-valku/pic-01-800w.jpg",
            "popisek": "Východní fronta 18. listopadu 1942 – březen 1943. Zdroj: Gdr [CC BY-SA 3.0 (http://creativecommons.org/licenses/by-sa/3.0/)]"
          },
          {
            "soubor": "proc-nevyhrali-valku/pic-02-800w.jpg",
            "popisek": "Východní fronta 1. srpna 1943 – 31. prosince 1944. Zdroj: Gdr [CC BY-SA 3.0 (http://creativecommons.org/licenses/by-sa/3.0/)]"
          },
          {
            "soubor": "proc-nevyhrali-valku/pic-03-800w.jpg",
            "popisek": "Josif Stalin, Franklin Roosevelt a Winston Churchill během Teheránské konference (28. listopadu 1943 – 1. prosince 1943). Hlavním výsledkem konference byl příslib vylodění ve Francii ze strany západních Spojenců. Zdroj. Imperial War Museum"
          }
        ],
        "texty": [
          {
            "id": 1,
            "text": "text-00",
            "funkce": "cteni"
          }
        ]
      },
      "popisky": [
        "Richard Vinen: Evropa dvacátého století, Praha 2007"
      ]
    },
    {
      "zadani": {
        "hlavni": "Přečtěte si text historika Normana Daviese.",
        "rozsirujici": ""
      },
      "napoveda": {
        "aktivity": [
          "lupa",
          "cteni"
        ],
        "text": "Kliknutím levého tlačítka do obrazu a jeho podržením lupa přiblíží část obrazu ve výřezu."
      },
      "textovyEditor": {
        "nastaveni": {
          "layout": "velka-galerie"
        },
        "galerie": [
          {
            "soubor": "proc-nevyhrali-valku/pic-00-800w.jpg",
            "popisek": "Východní fronta 22. června 1941 – 5. prosinec 1941. Zdroj: Gdr [CC BY-SA 3.0 (http://creativecommons.org/licenses/by-sa/3.0/)]"
          },
          {
            "soubor": "proc-nevyhrali-valku/pic-01-800w.jpg",
            "popisek": "Východní fronta 18. listopadu 1942 – březen 1943. Zdroj: Gdr [CC BY-SA 3.0 (http://creativecommons.org/licenses/by-sa/3.0/)]"
          },
          {
            "soubor": "proc-nevyhrali-valku/pic-02-800w.jpg",
            "popisek": "Východní fronta 1. srpna 1943 – 31. prosince 1944. Zdroj: Gdr [CC BY-SA 3.0 (http://creativecommons.org/licenses/by-sa/3.0/)]"
          },
          {
            "soubor": "proc-nevyhrali-valku/pic-03-800w.jpg",
            "popisek": "Josif Stalin, Franklin Roosevelt a Winston Churchill během Teheránské konference (28. listopadu 1943 – 1. prosince 1943). Hlavním výsledkem konference byl příslib vylodění ve Francii ze strany západních Spojenců. Zdroj. Imperial War Museum"
          }
        ],
        "texty": [
          {
            "id": 2,
            "text": "text-01",
            "funkce": "cteni"
          }
        ]
      },
      "popisky": [
        "Norman Davies: Evropa ve válce 1939-1945: žádné jednoduché vítězství, Praha 2007"
      ]
    },
    {
      "zadani": {
        "hlavni": "Označte pasáže, které nejlépe vyjadřují přístup autorů k příčinám vítězství Spojenců ve válce.",
        "rozsirujici": ""
      },
      "napoveda": {
        "aktivity": [
          "text-editor"
        ],
        "text": "Levým tlačítkem myši zabarvíte zvolené slovo nebo slovní spojení. Otevře se vám nabídka, v níž zvolíte označovanou kategorii. Křížkem lze označení smazat, kliknutím levým tlačítkem na již označené slovo lze přidat textový komentář."
      },
      "textovyEditor": {
        "texty": [
          {
            "id": 3,
            "text": "text-00",
            "funkce": "zvyraznovani",
            "menu": [
              {
                "title": "Důležité tvrzení",
                "commandName": "vinen",
                "color": "blue"
              }
            ]
          },
          {
            "id": 4,
            "text": "text-01",
            "funkce": "zvyraznovani",
            "menu": [
              {
                "title": "Důležité tvrzení",
                "commandName": "davies",
                "color": "orange"
              }
            ]
          }
        ]
      },
      "popisky": [
        "Richard Vinen: Evropa dvacátého století, Praha 2007",
        "Norman Davies: Evropa ve válce 1939-1945: žádné jednoduché vítězství, Praha 2007"
      ]
    },
    {
      "zadani": {
        "hlavni": "V čem se texty od sebe liší?",
        "rozsirujici": "Shrňte, čím se podle vás texty liší a zdůvodněte, který z nich je podle vás přesvědčivější."
      },
      "napoveda": {
        "aktivity": [
          "text"
        ],
        "text": "Do boxu pro text zapisujete odpověď na otázku, nebo jiný komentář (dle zadání)."
      },
      "uzivatelskyText": {
        "novaTabulka": {
          "tabulky": [
            {
              "id": "nova-tabulka-1",
              "dataFrom": [
                "textovy-editor-3",
                "textovy-editor-4"
              ],
              "columns": [
                {
                  "id": "pasaze",
                  "name": "",
                  "bg-color": "",
                  "values": []
                }
              ],
              "rows": [
                {
                  "id": "vinen",
                  "name": "označené pasáže Vinen",
                  "type": {
                    "name": "dup-text",
                    "type": "tag"
                  },
                  "bg-color": "",
                  "values": []
                },
                {
                  "id": "davies",
                  "name": "označené pasáže Davies",
                  "type": {
                    "name": "dup-text",
                    "type": "tag"
                  },
                  "bg-color": "",
                  "values": []
                }
              ]
            }
          ]
        },
        "otazky": [
          {
            "id": "text-1",
            "zadani": "V čem se texty liší?",
            "instrukce": "Myslím si, že…",
            "minDelka": 10,
            "maxDelka": 400
          },
          {
            "id": "text-2",
            "zadani": "Který text je podle vás přesvědčivější? Svoji volbu zdůvodněte.",
            "instrukce": "Myslím si, že…",
            "minDelka": 10,
            "maxDelka": 400
          }
        ]
      }
    }
  ]
}