{
  "cviceni": {
    "version": {
      "global": "<%= version %>",
      "content": 3
    },
    "katalog": [
      "test",
      "public"
    ],
    "language": "cs",
    "slug": "promeny-mesta-zlina",
    "nazev": "Proměny města Zlína",
    "autor": [
      "Michal Kurz"
    ],
    "klicovaSlova": {
      "rvp": [
        "české země ve třech stoletích"
      ],
      "koncept": [
        "člověk a životní prostředí"
      ],
      "b4": [
        "trvání a změna"
      ],
      "historylab": [
        "hledáme klíčové detaily"
      ]
    },
    "casovaOsa": {
      "roky": [
        2015
      ],
      "epochy": [
        {
          "refId": "czech",
          "obdobi": [
            "Česká republika v integrující se Evropě"
          ]
        },
        {
          "refId": "world",
          "obdobi": []
        }
      ]
    },
    "anotace": {
      "ucitel": "Cvičení se zaměřuje na práci se čtyřmi historickými mapami Zlína (1829, 1934, počátek 50. let, 2014). Žáci označují na každé z map prvky umožňující přibližně odhadnout dobu jejich vzniku. Následně mapy seřadí od nejstarší po nejmladší a na základě vzájemného srovnání podob zobrazeného města popíší charakter a možné příčiny jeho proměny. Vizuální povaha pramenů vede žáky názornou a srozumitelnou formou k přemýšlení o obecných modernizačních procesech 19. a 20. století (urbanizace, industrializace ad.).",
      "verejna": "Dostanete čtyři různé mapy. Každá je jiná a přece jsou stejné. Proč je tu ten bílý flek? Tahle je tak pěkně barevná! Tady jsou zas jiné názvy ulic. Co dřív bylo na místě parkoviště? Vyzkoušejte hru „najdi co nejvíce rozdílů” a přitom zjistěte, jakým vývojem procházela města v 19. a 20. století."
    },
    "trvani": 45,
    "obtiznost": "střední",
    "funkce": [
      "lupa",
      "text",
      "svg",
      "razeni"
    ],
    "pdf": {
      "doporucenyPostup": "promeny-mesta-zlina.pdf"
    },
    "uvodniObrazek": "promeny-mesta-zlina/pic-01-1280w.jpg",
    "id": 28,
    "color": {
      "rgb": {
        "r": 209,
        "g": 198,
        "b": 159
      },
      "hsv": {
        "h": 47,
        "s": 23.92,
        "v": 81.96
      }
    }
  },
  "slajd": [
    {
      "class": [
        "slide-layout-column"
      ],
      "zadani": {
        "hlavni": "Prohlédněte si mapy města.",
        "rozsirujici": ""
      },
      "napoveda": {
        "aktivity": [
          "lupa"
        ],
        "text": "Kliknutím levého tlačítka do obrazu a jeho podržením lupa přiblíží část obrazu ve výřezu."
      },
      "prameny": [
        "promeny-mesta-zlina/pic-00-1280w.jpg",
        "promeny-mesta-zlina/pic-01-1280w.jpg",
        "promeny-mesta-zlina/pic-02-1280w.jpg",
        "promeny-mesta-zlina/pic-03-1280w.jpg"
      ],
      "popisky": [
        "Zdroj: Historický atlas měst České republiky, svazek č. 28 – ZLÍN. Věd. red. Eva Chodějovská. Praha 2015"
      ]
    },
    {
      "class": "half-slide-previous",
      "zadani": {
        "hlavni": "Kdy mapa vznikla?",
        "rozsirujici": "Označte na mapě alespoň jeden prvek, podle něhož byste mohli přibližně určit její stáří. Označené prvky popište."
      },
      "napoveda": {
        "aktivity": [
          "svg"
        ],
        "text": "Kliknutím na snímek levým tlačítkem myši označujete bod. Nakliknutím na bod pravým tlačítkem otevřete menu s nabídkou úkonů: změnit barvu bodu, (T) doplnit textový komentář, (X) smazat nakliknutý objekt."
      },
      "svg": {
        "soubory": [
          {
            "id": "svg-1",
            "soubor": "promeny-mesta-zlina/pic-00-1280w.jpg",
            "funkce": [
              "text",
              "znacky"
            ]
          }
        ]
      }
    },
    {
      "class": [
        "half-slide-previous",
        "half-slide-active"
      ],
      "zadani": {
        "hlavni": "Kdy mapa vznikla?",
        "rozsirujici": "Označte na mapě alespoň jeden prvek, podle něhož byste mohli přibližně určit její stáří. Označené prvky popište."
      },
      "napoveda": {
        "aktivity": [
          "svg"
        ],
        "text": "Kliknutím na snímek levým tlačítkem myši označujete bod. Nakliknutím na bod pravým tlačítkem otevřete menu s nabídkou úkonů: změnit barvu bodu, (T) doplnit textový komentář, (X) smazat nakliknutý objekt."
      },
      "svg": {
        "soubory": [
          {
            "id": "svg-2",
            "soubor": "promeny-mesta-zlina/pic-01-1280w.jpg",
            "funkce": [
              "text",
              "znacky"
            ]
          }
        ]
      }
    },
    {
      "class": [
        "half-slide-previous",
        "half-slide-active"
      ],
      "zadani": {
        "hlavni": "Kdy mapa vznikla?",
        "rozsirujici": "Označte na mapě alespoň jeden prvek, podle něhož byste mohli přibližně určit její stáří. Označené prvky popište."
      },
      "napoveda": {
        "aktivity": [
          "svg"
        ],
        "text": "Kliknutím na snímek levým tlačítkem myši označujete bod. Nakliknutím na bod pravým tlačítkem otevřete menu s nabídkou úkonů: změnit barvu bodu, (T) doplnit textový komentář, (X) smazat nakliknutý objekt."
      },
      "svg": {
        "soubory": [
          {
            "id": "svg-3",
            "soubor": "promeny-mesta-zlina/pic-02-1280w.jpg",
            "funkce": [
              "text",
              "znacky"
            ]
          }
        ]
      }
    },
    {
      "class": [
        "half-slide-active"
      ],
      "zadani": {
        "hlavni": "Kdy mapa vznikla?",
        "rozsirujici": "Označte na mapě alespoň jeden prvek, podle něhož byste mohli přibližně určit její stáří. Označené prvky popište."
      },
      "napoveda": {
        "aktivity": [
          "svg"
        ],
        "text": "Kliknutím na snímek levým tlačítkem myši označujete bod. Nakliknutím na bod pravým tlačítkem otevřete menu s nabídkou úkonů: změnit barvu bodu, (T) doplnit textový komentář, (X) smazat nakliknutý objekt."
      },
      "svg": {
        "soubory": [
          {
            "id": "svg-4",
            "soubor": "promeny-mesta-zlina/pic-03-1280w.jpg",
            "funkce": [
              "text",
              "znacky"
            ]
          }
        ]
      }
    },
    {
      "class": [
        "half-slide-previous"
      ],
      "zadani": {
        "hlavni": "Seřaďte mapy od nejstarší po nejmladší.",
        "rozsirujici": ""
      },
      "napoveda": {
        "aktivity": [
          "razeni"
        ],
        "text": "Kliknutím na fotografii a tahem myši přesuňte fotografii na požadovanou pozici mezi ostatní položky."
      },
      "razeni": {
        "id": "razeni-1",
        "typ": "horizontalni",
        "objekty": [
          {
            "medium": "svg",
            "objekt": {
              "soubor": "promeny-mesta-zlina/pic-00-1280w.jpg",
              "duplikovat": [
                "svg-1"
              ]
            }
          },
          {
            "medium": "svg",
            "objekt": {
              "soubor": "promeny-mesta-zlina/pic-01-1280w.jpg",
              "duplikovat": [
                "svg-2"
              ]
            }
          },
          {
            "medium": "svg",
            "objekt": {
              "soubor": "promeny-mesta-zlina/pic-02-1280w.jpg",
              "duplikovat": [
                "svg-3"
              ]
            }
          },
          {
            "medium": "svg",
            "objekt": {
              "soubor": "promeny-mesta-zlina/pic-03-1280w.jpg",
              "duplikovat": [
                "svg-4"
              ]
            }
          }
        ]
      }
    },
    {
      "class": [
        "half-slide-active"
      ],
      "zadani": {
        "hlavni": "Jak se město změnilo?",
        "rozsirujici": "Charakterizujte město znázorněné na nejstarší a na nejmladší mapě. V popisu použijte alespoň dvě přídavná jména."
      },
      "napoveda": {
        "aktivity": [
          "text"
        ],
        "text": "Do boxu pro text zapisujete odpověď na otázku, nebo jiný komentář (dle zadání)."
      },
      "uzivatelskyText": {
        "otazky": [
          {
            "id": "text-1",
            "zadani": "Město na nejstarší mapě je:",
            "instrukce": "Myslím si, že…",
            "maxDelka": 400,
            "optimum": 100,
            "vyska": 6
          },
          {
            "id": "text-2",
            "zadani": "Město na nejmladší mapě je:",
            "instrukce": "Myslím si, že…",
            "maxDelka": 400,
            "optimum": 100,
            "vyska": 6
          }
        ]
      }
    },
    {
      "class": [
        "half-slide-previous",
        "slide-layout-column"
      ],
      "zadani": {
        "hlavni": "Porovnejte mapy.",
        "rozsirujici": "Označte a popište na nejmladší mapě jednu lokalitu, která se v minulosti nejvíce proměnila (červeně), a jednu, která se změnila nejméně (modře)."
      },
      "napoveda": {
        "aktivity": [
          "svg"
        ],
        "text": "Tahem myši levým tlačítkem kreslíte do obrazu. Nakliknutím na nakreslený tvar pravým tlačítkem otevřete menu s nabídkou úkonů: změnit barvu tvaru, (T) doplnit textový komentář, (X) smazat nakliknutý objekt."
      },
      "svg": {
        "nastaveni": {
          "layout": "vertikalni",
          "poradi": {
            "duplikovat": "razeni-1",
            "obracene": true
          }
        },
        "soubory": [
          {
            "id": "svg-5",
            "soubor": "promeny-mesta-zlina/pic-00-1280w.jpg",
            "funkce": [
              "text",
              "znacky"
            ]
          },
          {
            "id": "svg-6",
            "soubor": "promeny-mesta-zlina/pic-01-1280w.jpg",
            "funkce": [
              "text",
              "znacky"
            ]
          },
          {
            "id": "svg-7",
            "soubor": "promeny-mesta-zlina/pic-02-1280w.jpg",
            "funkce": [
              "text",
              "znacky"
            ]
          },
          {
            "id": "svg-8",
            "soubor": "promeny-mesta-zlina/pic-03-1280w.jpg",
            "funkce": [
              "text",
              "znacky"
            ]
          }
        ]
      }
    },
    {
      "class": [
        "half-slide-active"
      ],
      "zadani": {
        "hlavni": "Proč se město změnilo?",
        "rozsirujici": "K jakým změnám došlo ve městě během 20. století a čím mohly být způsobeny? Uveďte alespoň dvě změny a jejich možné příčiny."
      },
      "napoveda": {
        "aktivity": [
          "text"
        ],
        "text": "Do boxu pro text zapisujete odpověď na otázku, nebo jiný komentář (dle zadání)."
      },
      "uzivatelskyText": {
        "otazky": [
          {
            "id": "text-3",
            "zadani": "",
            "instrukce": "Myslím si, že…",
            "maxDelka": 999,
            "optimum": 200
          }
        ]
      }
    }
  ]
}