{
  "cviceni": {
    "version": {
      "global": "<%= version %>",
      "content": 3
    },
    "katalog": [
      "test",
      "public"
    ],
    "language": "cs",
    "slug": "proc-je-v-ceskoslovenske-skole",
    "nazev": "Proč je v československé škole?",
    "autor": [
      "Karina Hoření"
    ],
    "klicovaSlova": {
      "rvp": [
        "Československo 50. léta",
        "vzdělání"
      ],
      "koncept": [
        "migrace"
      ],
      "b4": [
        "dobové perspektivy"
      ],
      "historylab": [
        "formulujeme a ověřujeme hypotézu"
      ]
    },
    "casovaOsa": {
      "roky": [
        1953
      ],
      "epochy": [
        {
          "refId": "czech",
          "obdobi": [
            "poválečná doba a nástup komunismu"
          ]
        },
        {
          "refId": "world",
          "obdobi": [
            "studená válka a rozpad koloniálních říší"
          ]
        }
      ]
    },
    "anotace": {
      "ucitel": "Cvičení představuje korejského žáka v československé škole v 50. letech. Žáci prostřednictvím dobové fotografie přemýšlí nad rolí školy a školního vzdělávání v otázkách migrace, začleňování cizinců, státní a národní identity.",
      "verejna": "Běžná školní situace. Učitel zkouší žáka před tabulí. Ale přece je tu něco jinak. Nechte promluvit žáka i učitele, přemýšlejte, kdy se situace odehrála, a možná se dozvíte něco více o událostech na druhém konci světa."
    },
    "trvani": 25,
    "obtiznost": "nízká",
    "funkce": [
      "text",
      "lupa",
      "svg",
      "kresleni",
      "znacky",
      "komiks"
    ],
    "pdf": {
      "doporucenyPostup": "proc-je-v-ceskoslovenske-skole.pdf"
    },
    "uvodniObrazek": "proc-je-v-ceskoslovenske-skole/pic-00-1280w.jpg",
    "id": 29,
    "color": {
      "rgb": {
        "r": 118,
        "g": 118,
        "b": 118
      },
      "hsv": {
        "h": 0,
        "s": 0,
        "v": 46.27
      }
    }
  },
  "slajd": [
    {
      "zadani": {
        "hlavni": "Prohlédněte si fotografii.",
        "rozsirujici": ""
      },
      "napoveda": {
        "aktivity": [
          "lupa"
        ],
        "text": "Při kliknutí levým tlačítkem do obrazu lupa přiblíží část obrazu ve výřezu."
      },
      "prameny": [
        "proc-je-v-ceskoslovenske-skole/pic-00-1280w.jpg"
      ]
    },
    {
      "class": [
        "half-slide-previous"
      ],
      "zadani": {
        "hlavni": "Označte důležité prvky na fotografii a popište je.",
        "rozsirujici": ""
      },
      "napoveda": {
        "aktivity": [
          "svg"
        ],
        "text": "Kliknutím na snímek levým tlačítkem myši označujete bod. Nakliknutím na bod pravým tlačítkem otevřete menu s nabídkou úkonů: (T) doplnit textový komentář, (X) smazat nakliknutý objekt."
      },
      "svg": {
        "soubory": [
          {
            "id": "svg-1",
            "soubor": "proc-je-v-ceskoslovenske-skole/pic-00-1024w.jpg",
            "barvy": [
              "blue"
            ],
            "funkce": [
              "text",
              "znacky"
            ]
          }
        ]
      }
    },
    {
      "class": [
        "half-slide-active"
      ],
      "zadani": {
        "hlavni": "Co se děje na fotografii?",
        "rozsirujici": ""
      },
      "napoveda": {
        "aktivity": [
          "text"
        ],
        "text": "Do boxu pro text zapisujete odpověď na otázku, nebo jiný komentář (dle zadání)."
      },
      "uzivatelskyText": {
        "otazky": [
          {
            "id": "otazka-1",
            "zadani": "",
            "instrukce": "Myslím si, že…",
            "minDelka": 10,
            "maxDelka": 400
          }
        ]
      }
    },
    {
      "class": [
        "half-slide-previous"
      ],
      "zadani": {
        "hlavni": "Přečtěte si dobový popisek a prozkoumejte prameny v galerii.",
        "rozsirujici": "Nově zjištěné informace doplňte do fotografie červeně."
      },
      "napoveda": {
        "aktivity": [
          "svg"
        ],
        "text": "Kliknutím na snímek levým tlačítkem myši označujete bod. Nakliknutím na bod pravým tlačítkem otevřete menu s nabídkou úkonů: (T) doplnit textový komentář, (X) smazat nakliknutý objekt."
      },
      "svg": {
        "nastaveni": {
          "layout": "galerie"
        },
        "galerie": [
          {
            "soubor": "proc-je-v-ceskoslovenske-skole/pic-03-1280w.jpg",
            "popisek": "Lázně Houštka u Staré Boleslavi, 12. března 1953. Foto František Kocian. Zdroj: ČTK"
          },
          {
            "soubor": "proc-je-v-ceskoslovenske-skole/pic-01-1280w.jpg",
            "popisek": "Záběr z ložnice severokorejských dívek, 12. března 1953. Foto František Kocian. Zdroj: ČTK"
          },
          {
            "soubor": "proc-je-v-ceskoslovenske-skole/pic-02-1280w.jpg",
            "popisek": "Děti uprostřed trosek po náletu na severokorejské hlavní město Pchjongjang v listopadu 1952. Zdroj: ČTK"
          },
          {
            "typ": "text",
            "objekt": "V červnu 1950 napadly vojenské jednotky komunistické Severní Koreje Jižní Koreu. Na její obranu vzápětí vystoupily OSN a USA, naopak Severní Koreu podpořila armáda komunistické Číny. Téměř tříletý válečný konflikt, který těžce poničil celé území korejského poloostrova, skončil podpisem příměří 27. července 1953."
          }
        ],
        "soubory": [
          {
            "id": "svg-2",
            "soubor": "proc-je-v-ceskoslovenske-skole/pic-00-1024w.jpg",
            "duplikovat": [
              "svg-1"
            ],
            "funkce": [
              "text",
              "znacky"
            ],
            "barvy": [
              "red"
            ]
          }
        ]
      },
      "popisky": [
        "„Československá vláda pozvala do Československa na 200 korejských dětí, které jsou umístěny v lázních Houštka u Staré Boleslavi. Mezi dětmi jsou i partyzáni s vyznamenáním za statečnost. Na snímku hodina vyučování, 12. března 1953.” Foto František Kocian. Zdroj: ČTK"
      ]
    },
    {
      "class": [
        "half-slide-active",
        "half-slide-previous"
      ],
      "zadani": {
        "hlavni": "Pokuste se vcítit do učitele a žáka na fotografii.",
        "rozsirujici": "Vymyslete a napište, co si podle vás obě postavy mohly myslet. Využijte informace, které jste získali na předchozím slajdu."
      },
      "napoveda": {
        "aktivity": [
          "svg"
        ],
        "text": "Text vpisujte do bublin."
      },
      "svg": {
        "soubory": [
          {
            "id": "svg-3",
            "soubor": "proc-je-v-ceskoslovenske-skole/pic-00-1024w.jpg",
            "funkce": [
              "text",
              "komiks",
              "kresleni"
            ],
            "komiks": [
              {
                "kategorie": "text",
                "subkategorie": "myslenka",
                "pozice": [
                  260,
                  230
                ],
                "subjekt": [
                  "bottom",
                  "left"
                ]
              },
              {
                "kategorie": "text",
                "subkategorie": "myslenka",
                "pozice": [
                  580,
                  350
                ],
                "subjekt": [
                  "bottom",
                  "left"
                ]
              }
            ]
          }
        ]
      }
    },
    {
      "class": [
        "half-slide-active"
      ],
      "zadani": {
        "hlavni": "Odpovězte na otázky.",
        "rozsirujici": ""
      },
      "napoveda": {
        "aktivity": [
          "text"
        ],
        "text": "Do boxu pro text zapisujete odpověď na otázku, nebo jiný komentář (dle zadání)."
      },
      "uzivatelskyText": {
        "otazky": [
          {
            "id": "otazka-2",
            "zadani": "Proč je korejský žák v československé škole?",
            "instrukce": "Myslím si, že…",
            "minDelka": 10,
            "maxDelka": 400
          },
          {
            "id": "otazka-3",
            "zadani": "Co měla fotografie sdělit čtenářům dobového tisku?",
            "instrukce": "Myslím si, že…",
            "minDelka": 10,
            "maxDelka": 400
          }
        ]
      }
    }
  ]
}